{
	"info": {
		"_postman_id": "5718100d-b1a8-48bd-b7a9-75dfbe41a0c9",
		"name": "s36-Discussion",
		"schema": "https://schema.getpostman.com/json/collection/v2.1.0/collection.json"
	},
	"item": [
		{
			"name": "tasks",
			"item": [
				{
					"name": "create task",
					"request": {
						"method": "POST",
						"header": [],
						"body": {
							"mode": "raw",
							"raw": "{\r\n    \"name\": \"Sleep\"\r\n}",
							"options": {
								"raw": {
									"language": "json"
								}
							}
						},
						"url": {
							"raw": "http://localhost:3003/tasks/create",
							"protocol": "http",
							"host": [
								"localhost"
							],
							"port": "3003",
							"path": [
								"tasks",
								"create"
							]
						}
					},
					"response": []
				},
				{
					"name": "view all task",
					"request": {
						"method": "GET",
						"header": [],
						"url": {
							"raw": "http://localhost:3003/tasks/",
							"protocol": "http",
							"host": [
								"localhost"
							],
							"port": "3003",
							"path": [
								"tasks",
								""
							]
						}
					},
					"response": []
				},
				{
					"name": "New Request",
					"request": {
						"method": "DELETE",
						"header": [],
						"body": {
							"mode": "raw",
							"raw": "{\r\n    \"name\": \"Sleep\"\r\n}",
							"options": {
								"raw": {
									"language": "json"
								}
							}
						},
						"url": {
							"raw": "http://localhost:3003/tasks/633d1be5ffa19ae15c676ff2/delete",
							"protocol": "http",
							"host": [
								"localhost"
							],
							"port": "3003",
							"path": [
								"tasks",
								"633d1be5ffa19ae15c676ff2",
								"delete"
							]
						}
					},
					"response": []
				}
			]
		},
		{
			"name": "update task",
			"request": {
				"method": "PATCH",
				"header": [],
				"body": {
					"mode": "raw",
					"raw": "{\r\n    \"name\": \"Lunch\"\r\n}",
					"options": {
						"raw": {
							"language": "json"
						}
					}
				},
				"url": {
					"raw": "http://localhost:3003/tasks/633d1a222f48990b36625053/update",
					"protocol": "http",
					"host": [
						"localhost"
					],
					"port": "3003",
					"path": [
						"tasks",
						"633d1a222f48990b36625053",
						"update"
					]
				}
			},
			"response": []
		}
	]
}